%!PS-Adobe-3.0 EPSF-3.0
%%Creator: cairo 1.15.14 (http://cairographics.org)
%%CreationDate: Wed Oct 17 10:21:02 2018
%%Pages: 1
%%DocumentData: Clean7Bit
%%LanguageLevel: 2
%%BoundingBox: 27 629 515 789
%%EndComments
%%BeginProlog
50 dict begin
/q { gsave } bind def
/Q { grestore } bind def
/cm { 6 array astore concat } bind def
/w { setlinewidth } bind def
/J { setlinecap } bind def
/j { setlinejoin } bind def
/M { setmiterlimit } bind def
/d { setdash } bind def
/m { moveto } bind def
/l { lineto } bind def
/c { curveto } bind def
/h { closepath } bind def
/re { exch dup neg 3 1 roll 5 3 roll moveto 0 rlineto
      0 exch rlineto 0 rlineto closepath } bind def
/S { stroke } bind def
/f { fill } bind def
/f* { eofill } bind def
/n { newpath } bind def
/W { clip } bind def
/W* { eoclip } bind def
/BT { } bind def
/ET { } bind def
/BDC { mark 3 1 roll /BDC pdfmark } bind def
/EMC { mark /EMC pdfmark } bind def
/cairo_store_point { /cairo_point_y exch def /cairo_point_x exch def } def
/Tj { show currentpoint cairo_store_point } bind def
/TJ {
  {
    dup
    type /stringtype eq
    { show } { -0.001 mul 0 cairo_font_matrix dtransform rmoveto } ifelse
  } forall
  currentpoint cairo_store_point
} bind def
/cairo_selectfont { cairo_font_matrix aload pop pop pop 0 0 6 array astore
    cairo_font exch selectfont cairo_point_x cairo_point_y moveto } bind def
/Tf { pop /cairo_font exch def /cairo_font_matrix where
      { pop cairo_selectfont } if } bind def
/Td { matrix translate cairo_font_matrix matrix concatmatrix dup
      /cairo_font_matrix exch def dup 4 get exch 5 get cairo_store_point
      /cairo_font where { pop cairo_selectfont } if } bind def
/Tm { 2 copy 8 2 roll 6 array astore /cairo_font_matrix exch def
      cairo_store_point /cairo_font where { pop cairo_selectfont } if } bind def
/g { setgray } bind def
/rg { setrgbcolor } bind def
/d1 { setcachedevice } bind def
/cairo_data_source {
  CairoDataIndex CairoData length lt
    { CairoData CairoDataIndex get /CairoDataIndex CairoDataIndex 1 add def }
    { () } ifelse
} def
/cairo_flush_ascii85_file { cairo_ascii85_file status { cairo_ascii85_file flushfile } if } def
/cairo_image { image cairo_flush_ascii85_file } def
/cairo_imagemask { imagemask cairo_flush_ascii85_file } def
%%EndProlog
%%BeginSetup
%%EndSetup
%%Page: 1 1
%%BeginPageSetup
%%PageBoundingBox: 27 629 515 789
%%EndPageSetup
q 27 629 488 160 rectclip
1 0 0 -1 0 842 cm q
1 g
80.355 54.578 105 77.145 re f
0 g
1.417323 w
0 J
0 j
[] 0.0 d
4 M q 1 0 0 -1 0 0 cm
80.355 -54.578 105 -77.145 re S Q
1 g
184.715 54.605 105 77.141 re f
0 g
q 1 0 0 -1 0 0 cm
184.715 -54.605 105 -77.141 re S Q
1 g
288.645 54.605 105 77.141 re f
0 g
q 1 0 0 -1 0 0 cm
288.645 -54.605 105 -77.141 re S Q
330.836 71.594 m 329.094 71.723 327.758 73.531 327.758 75.336 c 327.758
 76.496 328.375 77.785 329.809 77.785 c 331.246 77.785 332.785 76.367 332.785
 73.141 c 332.785 69.402 330.016 66.047 324.988 66.047 c 316.363 66.047 
313.902 74.434 313.902 78.043 c 313.902 84.492 318.727 85.656 320.676 86.172
 c 324.062 87.074 327.449 87.977 327.449 92.492 c 327.449 94.555 326.012
 101.52 318.109 101.52 c 317.188 101.52 312.156 101.52 310.617 97.133 c 
313.184 97.52 314.824 95.07 314.824 92.75 c 314.824 90.941 313.695 89.91
 312.363 89.91 c 310.617 89.91 308.668 91.59 308.668 95.328 c 308.668 99.973
 312.465 103.324 318.008 103.324 c 328.68 103.324 331.246 93.395 331.246
 89.652 c 331.246 86.688 330.016 84.621 329.195 83.719 c 327.449 81.398 
325.5 80.883 322.625 80.238 c 320.266 79.594 317.699 78.945 317.699 75.207
 c 317.699 72.883 319.238 67.855 324.988 67.855 c 326.629 67.855 329.914
 68.5 330.836 71.594 c h
330.836 71.594 m f
351.25 78.125 m 351.25 76.574 351.25 76.574 349.914 76.574 c 346.938 80.188
 342.832 80.188 340.984 80.188 c 340.984 82.25 l 342.012 82.25 345.09 82.25
 347.555 80.703 c 347.555 109.984 l 347.555 111.918 347.555 112.691 343.039
 112.691 c 341.293 112.691 l 341.293 114.758 l 342.113 114.758 347.762 114.5
 349.402 114.5 c 350.84 114.5 356.586 114.758 357.613 114.758 c 357.613 
112.691 l 355.867 112.691 l 351.25 112.691 351.25 111.918 351.25 109.984
 c h
351.25 78.125 m f
230.348 72.641 m 228.52 72.766 227.117 74.535 227.117 76.301 c 227.117 
77.438 227.766 78.699 229.273 78.699 c 230.777 78.699 232.395 77.312 232.395
 74.156 c 232.395 70.492 229.488 67.211 224.211 67.211 c 215.168 67.211 
212.586 75.418 212.586 78.953 c 212.586 85.266 217.645 86.402 219.691 86.91
 c 223.242 87.793 226.797 88.676 226.797 93.098 c 226.797 95.117 225.289
 101.938 217 101.938 c 216.031 101.938 210.754 101.938 209.141 97.645 c 
211.832 98.023 213.555 95.621 213.555 93.348 c 213.555 91.582 212.367 90.57
 210.969 90.57 c 209.141 90.57 207.094 92.215 207.094 95.875 c 207.094 100.422
 211.078 103.703 216.891 103.703 c 228.086 103.703 230.777 93.98 230.777
 90.32 c 230.777 87.414 229.488 85.395 228.625 84.512 c 226.797 82.238 224.75
 81.73 221.734 81.102 c 219.258 80.469 216.566 79.836 216.566 76.176 c 216.566
 73.902 218.184 68.977 224.211 68.977 c 225.934 68.977 229.379 69.609 230.348
 72.641 c h
230.348 72.641 m f
259.941 104.668 m 258.328 104.668 l 258.219 105.93 257.684 109.211 257.035
 109.719 c 256.715 110.098 253.051 110.098 252.301 110.098 c 243.469 110.098
 l 248.531 104.918 250.254 103.277 253.051 100.625 c 256.605 97.344 259.941
 93.805 259.941 88.504 c 259.941 81.684 254.883 77.516 248.746 77.516 c 
242.824 77.516 238.734 82.441 238.734 87.617 c 238.734 90.398 240.777 90.777
 241.316 90.777 c 242.395 90.777 243.793 89.766 243.793 87.746 c 243.793
 86.734 243.469 84.715 240.996 84.715 c 242.5 80.801 245.73 79.535 247.992
 79.535 c 252.836 79.535 255.312 83.957 255.312 88.504 c 255.312 93.426 
252.301 97.215 250.793 99.238 c 239.273 112.75 l 238.734 113.254 238.734
 113.379 238.734 114.895 c 258.543 114.895 l h
259.941 104.668 m f
126.336 74.031 m 124.555 74.152 123.191 75.82 123.191 77.492 c 123.191 
78.566 123.82 79.762 125.285 79.762 c 126.754 79.762 128.324 78.449 128.324
 75.465 c 128.324 72.004 125.496 68.898 120.363 68.898 c 111.559 68.898 
109.043 76.656 109.043 80 c 109.043 85.969 113.969 87.043 115.961 87.52 
c 119.418 88.355 122.875 89.191 122.875 93.367 c 122.875 95.277 121.41 101.723
 113.34 101.723 c 112.398 101.723 107.262 101.723 105.691 97.664 c 108.312
 98.023 109.988 95.754 109.988 93.605 c 109.988 91.934 108.836 90.98 107.473
 90.98 c 105.691 90.98 103.699 92.531 103.699 95.992 c 103.699 100.289 107.578
 103.395 113.234 103.395 c 124.133 103.395 126.754 94.203 126.754 90.742
 c 126.754 87.996 125.496 86.086 124.656 85.25 c 122.875 83.102 120.887 
82.625 117.953 82.027 c 115.543 81.43 112.922 80.836 112.922 77.375 c 112.922
 75.227 114.492 70.57 120.363 70.57 c 122.039 70.57 125.391 71.168 126.336
 74.031 c h
126.336 74.031 m f
144.344 96.188 m 148.012 96.188 150.633 99.051 150.633 104.781 c 150.633
 111.344 147.176 113.375 144.555 113.375 c 142.668 113.375 138.477 112.777
 136.59 109.555 c 138.793 109.555 139.316 107.762 139.316 106.57 c 139.316
 104.898 138.164 103.707 136.695 103.707 c 135.438 103.707 134.074 104.66
 134.074 106.809 c 134.074 111.82 138.895 115.043 144.555 115.043 c 151.051
 115.043 155.559 110.031 155.559 104.781 c 155.559 100.602 152.625 96.426
 147.488 95.23 c 152.309 93.203 154.09 89.262 154.09 85.922 c 154.09 81.742
 149.898 78.641 144.66 78.641 c 139.523 78.641 135.543 81.504 135.543 85.801
 c 135.543 87.594 136.59 88.547 137.953 88.547 c 139.422 88.547 140.363 
87.352 140.363 85.922 c 140.363 84.371 139.422 83.176 137.953 83.055 c 139.629
 80.789 142.773 80.191 144.555 80.191 c 146.652 80.191 149.586 81.387 149.586
 85.922 c 149.586 88.188 148.957 90.695 147.699 92.246 c 146.23 94.277 144.871
 94.395 142.562 94.633 c 141.41 94.754 141.305 94.754 141.098 94.754 c 140.992
 94.754 140.574 94.871 140.574 95.469 c 140.574 96.188 140.992 96.188 141.832
 96.188 c h
144.344 96.188 m f
441.449 95.535 m 442.867 95.535 444.41 95.535 444.41 94.66 c 444.41 93.855
 442.867 93.855 441.449 93.855 c 397.066 93.855 l 395.648 93.855 394.234
 93.855 394.234 94.66 c 394.234 95.535 395.648 95.535 397.066 95.535 c h
441.449 95.535 m f
505.965 95.535 m 501.461 97.344 499.273 99.09 498.629 99.695 c 494.898 
102.648 494.258 105.332 494.258 105.332 c 494.258 105.867 495.285 105.867
 495.93 105.867 c 497.215 105.867 497.344 105.801 497.73 104.996 c 499.531
 100.836 504.418 97.211 513.684 95.266 c 514.711 95.062 514.969 94.996 514.969
 94.66 c 514.969 94.395 514.453 94.258 514.328 94.191 c 510.594 93.52 500.688
 91.375 497.602 84.191 c 497.344 83.656 497.215 83.523 495.93 83.523 c 495.285
 83.523 494.258 83.523 494.258 84.059 c 494.258 84.125 495.027 86.809 498.375
 89.695 c 500.047 90.969 502.488 92.445 505.965 93.855 c 444.98 93.855 l
 443.566 93.855 442.023 93.855 442.023 94.66 c 442.023 95.535 443.566 95.535
 444.98 95.535 c h
505.965 95.535 m f
265.152 191.141 m 263.02 191.152 260.695 191.16 260.707 192.035 c 260.715
 192.84 263.039 192.828 265.168 192.82 c 332.004 192.52 l 334.137 192.512
 336.266 192.5 336.258 191.695 c 336.25 190.824 334.117 190.832 331.988 
190.844 c h
265.152 191.141 m f
168.008 191.574 m 174.77 189.734 178.043 187.973 179.008 187.367 c 184.594
 184.387 185.535 181.699 185.535 181.699 c 185.527 181.164 183.977 181.168
 183.008 181.172 c 181.074 181.184 180.879 181.25 180.305 182.059 c 177.637
 186.23 170.316 189.887 156.387 191.895 c 154.84 192.105 154.453 192.172
 154.457 192.508 c 154.457 192.777 155.234 192.906 155.43 192.973 c 161.055
 193.621 175.992 195.699 180.719 202.859 c 181.113 203.395 181.309 203.527
 183.246 203.52 c 184.215 203.516 185.762 203.508 185.758 202.973 c 185.758
 202.902 184.566 200.227 179.5 197.363 c 176.969 196.098 173.27 194.637 
168.023 193.254 c 259.852 192.844 l 261.984 192.832 264.309 192.824 264.301
 192.016 c 264.289 191.145 261.965 191.156 259.836 191.164 c h
168.008 191.574 m f
1.885039 w
1 J
q 1 0 0 1 0 0 cm
335.25 191.582 m 334.715 132.652 l S Q
154.617 192.477 m 154.617 181.434 145.691 172.465 134.816 172.465 c 123.844
 172.465 115.012 181.527 115.012 192.477 c 115.012 203.617 123.938 212.586
 134.816 212.586 c 145.785 212.586 154.617 203.523 154.617 192.477 c h
116.5 191.723 m 117.059 181.621 124.773 174.445 134.07 173.973 c 134.07
 191.723 l h
135.559 173.973 m 144.855 174.445 152.477 181.715 153.129 191.723 c 135.559
 191.723 l h
134.07 211.074 m 124.867 210.602 117.059 203.523 116.5 193.234 c 134.07
 193.234 l h
153.129 193.234 m 152.477 203.523 144.668 210.602 135.559 211.074 c 135.559
 193.234 l h
153.129 193.234 m f
134.844 147.973 m 134.852 148.477 134.855 149.027 135.387 149.027 c 135.875
 149.023 135.867 148.473 135.863 147.969 c 135.68 132.141 l 135.676 131.637
 135.668 131.133 135.18 131.133 c 134.652 131.137 134.656 131.641 134.664
 132.145 c h
134.844 147.973 m f
135.109 170.977 m 133.992 169.375 132.926 168.602 132.559 168.371 c 130.754
 167.051 129.121 166.828 129.121 166.828 c 128.797 166.828 128.801 167.195
 128.805 167.426 c 128.809 167.883 128.852 167.93 129.34 168.066 c 131.867
 168.695 134.086 170.43 135.301 173.73 c 135.43 174.098 135.469 174.188 
135.672 174.188 c 135.836 174.188 135.914 174.004 135.957 173.957 c 136.348
 172.625 137.609 169.086 141.945 167.969 c 142.27 167.875 142.352 167.828
 142.348 167.371 c 142.344 167.141 142.34 166.773 142.016 166.773 c 141.973
 166.773 140.352 167.055 138.613 168.258 c 137.848 168.855 136.965 169.73
 136.125 170.973 c 135.875 149.227 l 135.871 148.723 135.863 148.172 135.375
 148.176 c 134.848 148.176 134.852 148.727 134.859 149.23 c h
135.109 170.977 m f
1.895274 w
0 J
q -0.989183 0.0129053 -0.00359972 -1 0 0 cm
-117.071 -193.233 m -28.021 -192.217 l -27.99 -95.623 l S Q
47.957 95.926 m 48.578 95.914 49.258 95.906 49.254 95.031 c 49.25 94.227
 48.574 94.238 47.953 94.246 c 28.465 94.547 l 27.844 94.555 27.223 94.566
 27.227 95.371 c 27.227 96.242 27.848 96.234 28.469 96.223 c h
47.957 95.926 m f
76.281 95.492 m 74.312 97.332 73.355 99.094 73.074 99.699 c 71.445 102.68
 71.172 105.367 71.172 105.367 c 71.176 105.902 71.625 105.895 71.91 105.891
 c 72.473 105.883 72.531 105.816 72.695 105.008 c 73.473 100.836 75.609 
97.18 79.672 95.172 c 80.121 94.961 80.234 94.895 80.234 94.559 c 80.234
 94.289 80.008 94.16 79.949 94.094 c 78.309 93.445 73.953 91.367 72.578 
84.207 c 72.461 83.672 72.406 83.539 71.84 83.547 c 71.559 83.551 71.105
 83.559 71.105 84.094 c 71.105 84.16 71.453 86.84 72.934 89.703 c 73.672
 90.969 74.746 92.426 76.277 93.812 c 49.504 94.223 l 48.883 94.234 48.203
 94.242 48.207 95.047 c 48.211 95.922 48.887 95.91 49.508 95.902 c h
76.281 95.492 m f
Q Q
showpage
%%Trailer
end
%%EOF
